{
	"class_name" : "PinholeCameraParameters",
	"extrinsic" : 
	[
		0.81486264626181071,
		-0.08279029362706411,
		-0.5737112819252761,
		0.0,
		-0.28643478116964716,
		-0.91797587842039896,
		-0.2743636323833632,
		0.0,
		-0.50393847229944189,
		0.38789954101473417,
		-0.77173827313219545,
		0.0,
		-0.36881362071229473,
		0.31287184988790051,
		2.9893729059483345,
		1.0
	],
	"intrinsic" : 
	{
		"height" : 1061,
		"intrinsic_matrix" : 
		[
			918.85295341528945,
			0.0,
			0.0,
			0.0,
			918.85295341528945,
			0.0,
			959.5,
			530.0,
			1.0
		],
		"width" : 1920
	},
	"version_major" : 1,
	"version_minor" : 0
}